<svg xmlns="http://www.w3.org/2000/svg" width="23px" height="18.833px" viewBox="0 0 13 8.833">
    <rect x="0.5" y="0.5" fill="none" stroke="#fff" width="12" height="7.833"/>
    <polyline fill="none" stroke="#fff" points="12.5,0.5 6.5,5.5 0.5,0.5 "/>
</svg>